<mxfile host="app.diagrams.net" modified="2020-06-07T23:11:33.392Z" agent="5.0 (Windows NT 10.0; WOW64) AppleWebKit/537.36 (KHTML, like Gecko) Chrome/73.0.3663.0 Safari/537.36" etag="aWfNKajryVLMfdpNOGZ1" version="12.9.11" type="gitlab">
  <diagram name="Page-1" id="e3a06f82-3646-2815-327d-82caf3d4e204">
    <mxGraphModel dx="1108" dy="433" grid="1" gridSize="10" guides="1" tooltips="1" connect="1" arrows="1" fold="1" page="1" pageScale="1.5" pageWidth="1169" pageHeight="826" background="none" math="0" shadow="0">
      <root>
        <mxCell id="0" style=";html=1;" />
        <mxCell id="1" style=";html=1;" parent="0" />
        <mxCell id="1fycaajacNERENcHm7l7-8" style="edgeStyle=orthogonalEdgeStyle;rounded=0;orthogonalLoop=1;jettySize=auto;html=1;entryX=0;entryY=0.5;entryDx=0;entryDy=0;" parent="1" source="KPJYx508Z5HnnyzgHWb5-22" target="KPJYx508Z5HnnyzgHWb5-20" edge="1">
          <mxGeometry relative="1" as="geometry" />
        </mxCell>
        <mxCell id="KPJYx508Z5HnnyzgHWb5-22" value="" style="verticalLabelPosition=bottom;aspect=fixed;html=1;verticalAlign=top;strokeColor=none;align=center;outlineConnect=0;shape=mxgraph.citrix.globe;" parent="1" vertex="1">
          <mxGeometry x="170" y="876.34" width="60" height="57.32" as="geometry" />
        </mxCell>
        <mxCell id="KPJYx508Z5HnnyzgHWb5-19" value="" style="html=1;whiteSpace=wrap;container=1;collapsible=0;childLayout=tableLayout;" parent="1" vertex="1">
          <mxGeometry x="320" y="820" width="80" height="170" as="geometry" />
        </mxCell>
        <mxCell id="KPJYx508Z5HnnyzgHWb5-20" value="" style="shape=partialRectangle;html=1;whiteSpace=wrap;collapsible=0;dropTarget=0;pointerEvents=0;fillColor=none;strokeColor=none;points=[[0,0.5],[1,0.5]];portConstraint=eastwest;" parent="KPJYx508Z5HnnyzgHWb5-19" vertex="1">
          <mxGeometry width="80" height="170" as="geometry" />
        </mxCell>
        <mxCell id="KPJYx508Z5HnnyzgHWb5-21" value="&#xa;&#xa;&lt;img src=&quot;https://cdn.f5.com/websites/support/assets/images/logo.svg&quot; alt=&quot;F5 Networks&quot;&gt;&#xa;&#xa;" style="shape=partialRectangle;html=1;whiteSpace=wrap;connectable=0;fillColor=none;" parent="KPJYx508Z5HnnyzgHWb5-20" vertex="1">
          <mxGeometry width="80" height="170" as="geometry" />
        </mxCell>
        <mxCell id="KPJYx508Z5HnnyzgHWb5-29" value="" style="verticalLabelPosition=bottom;aspect=fixed;html=1;verticalAlign=top;strokeColor=none;align=center;outlineConnect=0;shape=mxgraph.citrix.license_server;" parent="1" vertex="1">
          <mxGeometry x="328" y="930" width="38.24" height="50" as="geometry" />
        </mxCell>
        <mxCell id="KPJYx508Z5HnnyzgHWb5-33" style="edgeStyle=orthogonalEdgeStyle;rounded=0;orthogonalLoop=1;jettySize=auto;html=1;exitX=1;exitY=0.5;exitDx=0;exitDy=0;" parent="1" source="KPJYx508Z5HnnyzgHWb5-20" edge="1">
          <mxGeometry relative="1" as="geometry">
            <mxPoint x="500" y="905" as="targetPoint" />
          </mxGeometry>
        </mxCell>
        <mxCell id="KPJYx508Z5HnnyzgHWb5-45" style="edgeStyle=orthogonalEdgeStyle;rounded=0;orthogonalLoop=1;jettySize=auto;html=1;" parent="1" source="KPJYx508Z5HnnyzgHWb5-34" edge="1">
          <mxGeometry relative="1" as="geometry">
            <mxPoint x="550" y="1060" as="targetPoint" />
          </mxGeometry>
        </mxCell>
        <mxCell id="KPJYx508Z5HnnyzgHWb5-34" value="" style="html=1;whiteSpace=wrap;container=1;collapsible=0;childLayout=tableLayout;" parent="1" vertex="1">
          <mxGeometry x="500" y="820" width="100" height="170" as="geometry" />
        </mxCell>
        <mxCell id="KPJYx508Z5HnnyzgHWb5-35" value="" style="shape=partialRectangle;html=1;whiteSpace=wrap;collapsible=0;dropTarget=0;pointerEvents=0;fillColor=none;strokeColor=none;points=[[0,0.5],[1,0.5]];portConstraint=eastwest;" parent="KPJYx508Z5HnnyzgHWb5-34" vertex="1">
          <mxGeometry width="100" height="170" as="geometry" />
        </mxCell>
        <mxCell id="KPJYx508Z5HnnyzgHWb5-36" value="&lt;font style=&quot;font-size: 14px&quot;&gt;&lt;b&gt;Apache live 1 &amp;amp;2&lt;/b&gt;&lt;/font&gt;" style="shape=partialRectangle;html=1;whiteSpace=wrap;connectable=0;fillColor=none;" parent="KPJYx508Z5HnnyzgHWb5-35" vertex="1">
          <mxGeometry width="100" height="170" as="geometry" />
        </mxCell>
        <mxCell id="KPJYx508Z5HnnyzgHWb5-42" value="" style="html=1;whiteSpace=wrap;container=1;collapsible=0;childLayout=tableLayout;" parent="1" vertex="1">
          <mxGeometry x="500" y="1060" width="92.5" height="150" as="geometry" />
        </mxCell>
        <mxCell id="KPJYx508Z5HnnyzgHWb5-43" value="" style="shape=partialRectangle;html=1;whiteSpace=wrap;collapsible=0;dropTarget=0;pointerEvents=0;fillColor=none;strokeColor=none;points=[[0,0.5],[1,0.5]];portConstraint=eastwest;" parent="KPJYx508Z5HnnyzgHWb5-42" vertex="1">
          <mxGeometry width="92.5" height="150" as="geometry" />
        </mxCell>
        <mxCell id="KPJYx508Z5HnnyzgHWb5-44" value="&lt;b&gt;&lt;font style=&quot;font-size: 14px&quot;&gt;Tomcat live1 &amp;amp; live2&lt;/font&gt;&lt;/b&gt;" style="shape=partialRectangle;html=1;whiteSpace=wrap;connectable=0;fillColor=none;" parent="KPJYx508Z5HnnyzgHWb5-43" vertex="1">
          <mxGeometry width="93" height="150" as="geometry" />
        </mxCell>
        <mxCell id="KPJYx508Z5HnnyzgHWb5-46" value="" style="verticalLabelPosition=bottom;aspect=fixed;html=1;verticalAlign=top;strokeColor=none;align=center;outlineConnect=0;shape=mxgraph.citrix.web_server;" parent="1" vertex="1">
          <mxGeometry x="525" y="1070" width="42.5" height="50" as="geometry" />
        </mxCell>
        <mxCell id="KPJYx508Z5HnnyzgHWb5-50" value="" style="verticalLabelPosition=bottom;aspect=fixed;html=1;verticalAlign=top;strokeColor=none;align=center;outlineConnect=0;shape=mxgraph.citrix.web_server;" parent="1" vertex="1">
          <mxGeometry x="525" y="1150" width="42.5" height="50" as="geometry" />
        </mxCell>
        <mxCell id="1fycaajacNERENcHm7l7-1" value="" style="verticalLabelPosition=bottom;aspect=fixed;html=1;verticalAlign=top;strokeColor=none;align=center;outlineConnect=0;shape=mxgraph.citrix.web_server;" parent="1" vertex="1">
          <mxGeometry x="525" y="830" width="42.5" height="50" as="geometry" />
        </mxCell>
        <mxCell id="1fycaajacNERENcHm7l7-2" value="" style="verticalLabelPosition=bottom;aspect=fixed;html=1;verticalAlign=top;strokeColor=none;align=center;outlineConnect=0;shape=mxgraph.citrix.web_server;" parent="1" vertex="1">
          <mxGeometry x="525" y="931" width="42.5" height="50" as="geometry" />
        </mxCell>
        <mxCell id="1fycaajacNERENcHm7l7-5" value="&lt;b&gt;https://espace-client-particuliers.enedis.fr&lt;/b&gt;" style="text;html=1;align=center;verticalAlign=middle;resizable=0;points=[];autosize=1;" parent="1" vertex="1">
          <mxGeometry x="65" y="790" width="250" height="20" as="geometry" />
        </mxCell>
        <mxCell id="1fycaajacNERENcHm7l7-7" value="&lt;b&gt;&amp;nbsp; &amp;nbsp; https://espace-client-entreprises.enedis.fr&lt;/b&gt;" style="text;html=1;align=center;verticalAlign=middle;resizable=0;points=[];autosize=1;" parent="1" vertex="1">
          <mxGeometry x="50" y="770" width="270" height="20" as="geometry" />
        </mxCell>
        <mxCell id="1fycaajacNERENcHm7l7-9" value="&lt;b&gt;&amp;nbsp;https://espace-client -collectivites.enedis.fr&lt;/b&gt;" style="text;html=1;align=center;verticalAlign=middle;resizable=0;points=[];autosize=1;" parent="1" vertex="1">
          <mxGeometry x="60.000000000000014" y="750" width="260" height="20" as="geometry" />
        </mxCell>
        <mxCell id="1fycaajacNERENcHm7l7-10" value="" style="verticalLabelPosition=bottom;aspect=fixed;html=1;verticalAlign=top;strokeColor=none;align=center;outlineConnect=0;shape=mxgraph.citrix.laptop_2;" parent="1" vertex="1">
          <mxGeometry x="0.5" y="840" width="53.64" height="40" as="geometry" />
        </mxCell>
        <mxCell id="1fycaajacNERENcHm7l7-11" value="" style="verticalLabelPosition=bottom;aspect=fixed;html=1;verticalAlign=top;strokeColor=none;align=center;outlineConnect=0;shape=mxgraph.citrix.pda;" parent="1" vertex="1">
          <mxGeometry x="20.5" y="930" width="30" height="61" as="geometry" />
        </mxCell>
        <mxCell id="VoOyyeH1Rp2t7_CnCWfS-11" style="edgeStyle=orthogonalEdgeStyle;shape=link;rounded=0;orthogonalLoop=1;jettySize=auto;html=1;" parent="1" source="VoOyyeH1Rp2t7_CnCWfS-3" target="VoOyyeH1Rp2t7_CnCWfS-5" edge="1">
          <mxGeometry relative="1" as="geometry" />
        </mxCell>
        <mxCell id="VoOyyeH1Rp2t7_CnCWfS-3" value="" style="shape=mxgraph.cisco.security.cisco_security;html=1;pointerEvents=1;dashed=0;fillColor=#036897;strokeColor=#ffffff;strokeWidth=2;verticalLabelPosition=bottom;verticalAlign=top;align=center;outlineConnect=0;" parent="1" vertex="1">
          <mxGeometry x="690" y="870" width="78" height="70" as="geometry" />
        </mxCell>
        <mxCell id="VoOyyeH1Rp2t7_CnCWfS-5" value="" style="shape=mxgraph.cisco.security.centri_firewall;html=1;pointerEvents=1;dashed=0;fillColor=#036897;strokeColor=#ffffff;strokeWidth=2;verticalLabelPosition=bottom;verticalAlign=top;align=center;outlineConnect=0;" parent="1" vertex="1">
          <mxGeometry x="833.5" y="874" width="46.5" height="62" as="geometry" />
        </mxCell>
        <mxCell id="VoOyyeH1Rp2t7_CnCWfS-10" style="edgeStyle=orthogonalEdgeStyle;shape=link;rounded=0;orthogonalLoop=1;jettySize=auto;html=1;" parent="1" source="KPJYx508Z5HnnyzgHWb5-35" target="VoOyyeH1Rp2t7_CnCWfS-3" edge="1">
          <mxGeometry relative="1" as="geometry" />
        </mxCell>
        <mxCell id="GqF6SNHnTxadj3FhWh_P-1" value="&lt;b&gt;&lt;u&gt;&lt;font face=&quot;Times New Roman&quot; style=&quot;font-size: 14px&quot;&gt;Agent TOSIAM&lt;/font&gt;&lt;/u&gt;&lt;/b&gt;" style="text;html=1;align=center;verticalAlign=middle;resizable=0;points=[];autosize=1;" vertex="1" parent="1">
          <mxGeometry x="681.5" y="841" width="110" height="20" as="geometry" />
        </mxCell>
        <mxCell id="GqF6SNHnTxadj3FhWh_P-2" value="&lt;font style=&quot;font-size: 14px&quot; face=&quot;Times New Roman&quot;&gt;&lt;b&gt;&lt;u&gt;Alex 2.0&lt;/u&gt;&lt;/b&gt;&lt;/font&gt;" style="text;html=1;align=center;verticalAlign=middle;resizable=0;points=[];autosize=1;" vertex="1" parent="1">
          <mxGeometry x="825" y="840" width="60" height="20" as="geometry" />
        </mxCell>
        <mxCell id="GqF6SNHnTxadj3FhWh_P-3" value="&lt;b&gt;&lt;font style=&quot;font-size: 14px&quot;&gt;Https 443&lt;/font&gt;&lt;/b&gt;" style="text;html=1;align=center;verticalAlign=middle;resizable=0;points=[];autosize=1;" vertex="1" parent="1">
          <mxGeometry x="111.5" y="953" width="80" height="20" as="geometry" />
        </mxCell>
        <mxCell id="GqF6SNHnTxadj3FhWh_P-4" value="&lt;font style=&quot;font-size: 14px&quot;&gt;&lt;b&gt;Https:443&lt;/b&gt;&lt;/font&gt;" style="text;html=1;align=center;verticalAlign=middle;resizable=0;points=[];autosize=1;" vertex="1" parent="1">
          <mxGeometry x="420.5" y="932" width="80" height="20" as="geometry" />
        </mxCell>
        <mxCell id="GqF6SNHnTxadj3FhWh_P-5" value="&lt;b&gt;&lt;font style=&quot;font-size: 14px&quot;&gt;AJP:8009&lt;/font&gt;&lt;/b&gt;" style="text;html=1;align=center;verticalAlign=middle;resizable=0;points=[];autosize=1;" vertex="1" parent="1">
          <mxGeometry x="545" y="1010" width="80" height="20" as="geometry" />
        </mxCell>
        <mxCell id="GqF6SNHnTxadj3FhWh_P-8" style="edgeStyle=orthogonalEdgeStyle;rounded=0;orthogonalLoop=1;jettySize=auto;html=1;" edge="1" parent="1" source="KPJYx508Z5HnnyzgHWb5-13" target="KPJYx508Z5HnnyzgHWb5-22">
          <mxGeometry relative="1" as="geometry">
            <Array as="points">
              <mxPoint x="90" y="905" />
              <mxPoint x="90" y="905" />
            </Array>
          </mxGeometry>
        </mxCell>
        <mxCell id="KPJYx508Z5HnnyzgHWb5-13" value="" style="shape=partialRectangle;html=1;whiteSpace=wrap;collapsible=0;dropTarget=0;pointerEvents=0;fillColor=none;strokeColor=none;points=[[0,0.5],[1,0.5]];portConstraint=eastwest;" parent="1" vertex="1">
          <mxGeometry x="0.5" y="830" width="70" height="170" as="geometry" />
        </mxCell>
        <mxCell id="KPJYx508Z5HnnyzgHWb5-14" value="" style="shape=partialRectangle;html=1;whiteSpace=wrap;connectable=0;fillColor=none;" parent="KPJYx508Z5HnnyzgHWb5-13" vertex="1">
          <mxGeometry width="70" height="170" as="geometry" />
        </mxCell>
        <mxCell id="KPJYx508Z5HnnyzgHWb5-17" style="edgeStyle=orthogonalEdgeStyle;rounded=0;orthogonalLoop=1;jettySize=auto;html=1;exitX=1;exitY=0.5;exitDx=0;exitDy=0;" parent="1" source="KPJYx508Z5HnnyzgHWb5-13" target="KPJYx508Z5HnnyzgHWb5-13" edge="1">
          <mxGeometry relative="1" as="geometry" />
        </mxCell>
        <mxCell id="GqF6SNHnTxadj3FhWh_P-9" value="" style="verticalLabelPosition=bottom;aspect=fixed;html=1;verticalAlign=top;strokeColor=none;align=center;outlineConnect=0;shape=mxgraph.citrix.users;" vertex="1" parent="1">
          <mxGeometry x="7" y="885" width="41.05" height="35" as="geometry" />
        </mxCell>
      </root>
    </mxGraphModel>
  </diagram>
</mxfile>
